<?xml version="1.0" encoding="UTF-8" standalone="no"?>
<!-- Created with Inkscape (http://www.inkscape.org/) -->

<svg
   xmlns:dc="http://purl.org/dc/elements/1.1/"
   xmlns:cc="http://creativecommons.org/ns#"
   xmlns:rdf="http://www.w3.org/1999/02/22-rdf-syntax-ns#"
   xmlns:svg="http://www.w3.org/2000/svg"
   xmlns="http://www.w3.org/2000/svg"
   xmlns:sodipodi="http://sodipodi.sourceforge.net/DTD/sodipodi-0.dtd"
   xmlns:inkscape="http://www.inkscape.org/namespaces/inkscape"
   version="1.0"
   width="100%"
   height="100%"
   viewBox="0 0 40 40"
   id="svg1"
   inkscape:version="0.48.4 r9939"
   sodipodi:docname="RotationAngle.svg">
  <sodipodi:namedview
     pagecolor="#ffffff"
     bordercolor="#666666"
     borderopacity="1"
     objecttolerance="10"
     gridtolerance="10"
     guidetolerance="10"
     inkscape:pageopacity="0"
     inkscape:pageshadow="2"
     inkscape:window-width="1918"
     inkscape:window-height="983"
     id="namedview3089"
     showgrid="false"
     inkscape:zoom="5.5625733"
     inkscape:cx="5.792391"
     inkscape:cy="20.722907"
     inkscape:window-x="1600"
     inkscape:window-y="48"
     inkscape:window-maximized="0"
     inkscape:current-layer="svg1" />
  <defs
     id="defs21" />
  <metadata
     id="metadata19">
    <rdf:RDF>
      <cc:Work>
        <dc:format>image/svg+xml</dc:format>
        <dc:type
           rdf:resource="http://purl.org/dc/dcmitype/StillImage" />
        <cc:license
           rdf:resource="http://creativecommons.org/licenses/publicdomain/" />
        <dc:publisher>
          <cc:Agent
             rdf:about="http://openclipart.org/">
            <dc:title>Openclipart</dc:title>
          </cc:Agent>
        </dc:publisher>
        <dc:title></dc:title>
      </cc:Work>
      <cc:License
         rdf:about="http://creativecommons.org/licenses/publicdomain/">
        <cc:permits
           rdf:resource="http://creativecommons.org/ns#Reproduction" />
        <cc:permits
           rdf:resource="http://creativecommons.org/ns#Distribution" />
        <cc:permits
           rdf:resource="http://creativecommons.org/ns#DerivativeWorks" />
      </cc:License>
    </rdf:RDF>
  </metadata>
  <path
     d="M 20.097252,7.9697093 6.3735032,31.740621 H 33.821646"
     id="path2097"
     style="color:#000000;fill:none;stroke:#ffffff;stroke-width:6.42648125;stroke-linecap:round;stroke-linejoin:round"
     inkscape:connector-curvature="0" />
  <path
     d="m 3.9943556,30.185413 c -0.5448371,2.033338 0.6633414,4.126443 2.6968086,4.670766 2.0337866,0.544966 4.1262488,-0.663213 4.6712148,-2.696551 0.544965,-2.033339 -0.663213,-4.125801 -2.6971945,-4.670767 -2.0333367,-0.544966 -4.1259276,0.663213 -4.6708289,2.696552 z"
     id="path2085"
     style="color:#000000;fill:none;stroke:#ffffff;stroke-width:5.22151613;stroke-linecap:round;stroke-linejoin:round;display:block"
     inkscape:connector-curvature="0" />
  <path
     inkscape:connector-curvature="0"
     style="color:#000000;fill:none;stroke:#f2f8ff;stroke-width:7.44817543;stroke-linecap:round;stroke-linejoin:round"
     id="path2167"
     d="m 25.058132,33.551866 c 0,-7.914119 -4.48787,-14.709091 -10.977348,-18.153364" />
  <path
     inkscape:connector-curvature="0"
     style="color:#000000;fill:#c5d8ef"
     id="path2157"
     d="M 14.080784,15.398502 3.2894413,34.277251 H 24.988472 c 0.0089,-0.247035 0.06966,-0.476853 0.06966,-0.725385 0,-7.914119 -4.48787,-14.709091 -10.977348,-18.153364 z" />
  <path
     inkscape:connector-curvature="0"
     style="color:#000000;fill:none;stroke:#9da1a6;stroke-width:3.72408772;stroke-linecap:round;stroke-linejoin:round"
     id="path2165"
     d="m 25.058132,33.551866 c 0,-7.914119 -4.48787,-14.709091 -10.977348,-18.153364" />
  <path
     inkscape:connector-curvature="0"
     style="color:#000000;fill:none;stroke:#000000;stroke-width:3.72408772;stroke-linecap:round;stroke-linejoin:round"
     id="path1322"
     d="M 19.037005,6.7238132 3.2887022,34.278 H 34.785309" />
  <path
     inkscape:connector-curvature="0"
     style="color:#000000;fill:#ffe940;stroke:#000000;stroke-width:2.3275547;stroke-linecap:round;stroke-linejoin:round;display:block"
     id="path1333"
     d="m 29.148052,32.394542 c -0.628421,2.368546 0.764776,4.806711 3.110236,5.440769 2.34472,0.634806 4.757617,-0.772547 5.386038,-3.141094 0.62842,-2.368546 -0.764776,-4.805962 -3.109496,-5.440769 -2.345461,-0.634806 -4.758358,0.772547 -5.386778,3.141094 z" />
  <path
     inkscape:connector-curvature="0"
     style="color:#000000;fill:#ffe940;stroke:#000000;stroke-width:2.3275547;stroke-linecap:round;stroke-linejoin:round;display:block"
     id="path2086"
     d="m 14.645473,6.957374 c -0.62842,2.3685459 0.764775,4.805962 3.109495,5.440769 2.345461,0.634807 4.758358,-0.772547 5.386778,-3.1410932 C 23.770167,6.8885039 22.376971,4.4506382 20.03151,3.8159814 17.68679,3.18125 15.273893,4.5886032 14.645473,6.957374 z" />
</svg>
